\select@language {spanish}
\contentsline {section}{\numberline {1}INTRODUCCI\IeC {\'O}N}{2}{section.1}
\contentsline {subsection}{\numberline {1.1}Contexto y estado del arte}{2}{subsection.1.1}
\contentsline {subsection}{\numberline {1.2}Descripci\IeC {\'o}n del proyecto}{3}{subsection.1.2}
\contentsline {section}{\numberline {2}TECNOLOG\IeC {\'I}A ESPEC\IeC {\'I}FICA / INTENSIFICACI\IeC {\'O}N / ITINERARIO CURSADO POR EL ALUMNO}{4}{section.2}
\contentsline {section}{\numberline {3}OBJETIVOS}{5}{section.3}
\contentsline {subsection}{\numberline {3.1}Objetivos espec\IeC {\'\i }ficos}{5}{subsection.3.1}
\contentsline {section}{\numberline {4}M\IeC {\'E}TODO Y FASES DE TRABAJO}{6}{section.4}
\contentsline {subsection}{\numberline {4.1}Metodolog\IeC {\'\i }a del proyecto}{6}{subsection.4.1}
\contentsline {subsection}{\numberline {4.2}Fases del desarrollo}{7}{subsection.4.2}
\contentsline {section}{\numberline {5}MEDIOS QUE SE PRETENDEN UTILIZAR}{8}{section.5}
\contentsline {subsection}{\numberline {5.1}Medios Hardware}{8}{subsection.5.1}
\contentsline {subsection}{\numberline {5.2}Medios Software}{8}{subsection.5.2}
\contentsline {section}{\numberline {6}REFERENCIAS}{10}{section.6}
