\relax 
\providecommand\hyper@newdestlabel[2]{}
\catcode `"\active 
\catcode `<\active 
\catcode `>\active 
\@nameuse{es@quoting}
\providecommand\HyperFirstAtBeginDocument{\AtBeginDocument}
\HyperFirstAtBeginDocument{\ifx\hyper@anchor\@undefined
\global\let\oldcontentsline\contentsline
\gdef\contentsline#1#2#3#4{\oldcontentsline{#1}{#2}{#3}}
\global\let\oldnewlabel\newlabel
\gdef\newlabel#1#2{\newlabelxx{#1}#2}
\gdef\newlabelxx#1#2#3#4#5#6{\oldnewlabel{#1}{{#2}{#3}}}
\AtEndDocument{\ifx\hyper@anchor\@undefined
\let\contentsline\oldcontentsline
\let\newlabel\oldnewlabel
\fi}
\fi}
\global\let\hyper@last\relax 
\gdef\HyperFirstAtBeginDocument#1{#1}
\providecommand\HyField@AuxAddToFields[1]{}
\providecommand\HyField@AuxAddToCoFields[2]{}
\select@language{spanish}
\@writefile{toc}{\select@language{spanish}}
\@writefile{lof}{\select@language{spanish}}
\@writefile{lot}{\select@language{spanish}}
\citation{Bp03}
\citation{Ass13}
\citation{BBC17}
\@writefile{toc}{\contentsline {section}{\numberline {1}INTRODUCCI\IeC {\'O}N}{2}{section.1}}
\@writefile{toc}{\contentsline {subsection}{\numberline {1.1}Contexto y estado del arte}{2}{subsection.1.1}}
\citation{Gil04}
\citation{Adri12}
\citation{Milo}
\citation{She17}
\@writefile{toc}{\contentsline {subsection}{\numberline {1.2}Descripci\IeC {\'o}n del proyecto}{3}{subsection.1.2}}
\@writefile{lof}{\contentsline {figure}{\numberline {1}{\ignorespaces Diagrama de funcionamiento del sistema.\relax }}{3}{figure.caption.1}}
\providecommand*\caption@xref[2]{\@setref\relax\@undefined{#1}}
\newlabel{fig:prototipos}{{1}{3}{Diagrama de funcionamiento del sistema.\relax }{figure.caption.1}{}}
\@writefile{toc}{\contentsline {section}{\numberline {2}TECNOLOG\IeC {\'I}A ESPEC\IeC {\'I}FICA / INTENSIFICACI\IeC {\'O}N / ITINERARIO CURSADO POR EL ALUMNO}{4}{section.2}}
\@writefile{lot}{\contentsline {table}{\numberline {1}{\ignorespaces Tecnolog\IeC {\'\i }a Espec\IeC {\'\i }fica cursada por el alumno\relax }}{4}{table.caption.2}}
\newlabel{tab:tec-especifica}{{1}{4}{Tecnología Específica cursada por el alumno\relax }{table.caption.2}{}}
\@writefile{lot}{\contentsline {table}{\numberline {2}{\ignorespaces Justificaci\IeC {\'o}n de las competencias espec\IeC {\'\i }ficas abordadas en el TFG\relax }}{5}{table.caption.3}}
\newlabel{tab:competencias}{{2}{5}{Justificación de las competencias específicas abordadas en el TFG\relax }{table.caption.3}{}}
\@writefile{toc}{\contentsline {section}{\numberline {3}OBJETIVOS}{5}{section.3}}
\@writefile{toc}{\contentsline {subsection}{\numberline {3.1}Objetivos espec\IeC {\'\i }ficos}{5}{subsection.3.1}}
\citation{Agil}
\@writefile{toc}{\contentsline {section}{\numberline {4}M\IeC {\'E}TODO Y FASES DE TRABAJO}{6}{section.4}}
\@writefile{toc}{\contentsline {subsection}{\numberline {4.1}Metodolog\IeC {\'\i }a del proyecto}{6}{subsection.4.1}}
\@writefile{lof}{\contentsline {figure}{\numberline {2}{\ignorespaces Prototipado incremental.\relax }}{7}{figure.caption.4}}
\newlabel{fig:prototipos}{{2}{7}{Prototipado incremental.\relax }{figure.caption.4}{}}
\@writefile{toc}{\contentsline {subsection}{\numberline {4.2}Fases del desarrollo}{7}{subsection.4.2}}
\@writefile{toc}{\contentsline {section}{\numberline {5}MEDIOS QUE SE PRETENDEN UTILIZAR}{8}{section.5}}
\@writefile{toc}{\contentsline {subsection}{\numberline {5.1}Medios Hardware}{8}{subsection.5.1}}
\@writefile{toc}{\contentsline {subsection}{\numberline {5.2}Medios Software}{8}{subsection.5.2}}
\bibstyle{alpha}
\bibdata{main}
\bibcite{Agil}{Agi01}
\bibcite{Ass13}{Ass13}
\bibcite{Gil04}{Gil04}
\bibcite{BBC17}{Mar17}
\bibcite{Milo}{Mil16}
\bibcite{Bp03}{PVdC03}
\bibcite{She17}{She17}
\bibcite{Adri12}{TPAA{$^{+}$}12}
\@writefile{toc}{\contentsline {section}{\numberline {6}REFERENCIAS}{10}{section.6}}
