Iteracion, Sujeto, Tipo, Emocion esperada, Emocion detectada, Transcripcion, Traduccion, Respuesta, Observaciones, Latencia
1, Yo, D, anger,anger, enfadado , Angry , ¿Cual fue la última vez que te sentiste enfadado?. , ,6890.26342773, 
2, Yo, I, anger,None, cuando me pegaron , When I stuck , Que interesante.. Hoy me han regalado cacahuetes ¿Cómo crees que me siento?. , ,7135.46020508, 
3, Tu, D, joy,None, el , The , Pues yo estaba muy contento. Ayer también estaba feliz adivina por qué. , ,6582.61962891, 
4, Tu, I, joy,None, por qué te regalaron cosas , Why you bought things , En realidad fue porque fui a jugar con mis amigos mamuts. A un niño le han castigado sin razón ¿Cómo crees que se siente?. , ,7002.35083008, 
5, El, D, anger,None, dejado , Left , Él estaba muy enfadado.. Este niño ayer estaba contento ¿Por qué puede ser?. , ,7287.96875, 
6, El, I, joy,joy, porque jugaba en su cumpleaños , Because he played for his birthday , Si era justo por eso.. Ahora vamos a volver a hablar de ti.. Imagina que estás en una fiesta de cumpleaños  ¿Cómo te sientes?. , ,7449.87036133, 
