en ahora ,14141.299973,-16.0
en una cama ,14523.945058,0.0
manejarnos en red ,11233.847439,-4.0234375
una en la línea ,15320.4351,-8.0
es solo en una j uno ,14687.964089,-30.69921875
es un generador ,11585.271435,-3646.875
sí rodeada de adn y c illa ,15429.002522,0.0
