mal día ,10338.900579,0.0
buen día puntiagudos b ama ,10095.57004,-6.0
desde unas pilas de paul por favor ,11784.388669,0.0
los kilos de pan aquí están algo más ,10092.363978,0.0
mañana cuando le dio ,9351.814565,-4.0
treinta pesos ,8777.237988,-5.0
aquí tiene ,8117.230218,-8.0
muchas gracias buenas tardes ,6659.897722,-6.4296875
molestarles ,8577.259218,-6.0
