jorge ,8866.850476,-5944.1171875
por joel ,6783.368999,-0.328125
no ,5315.302463,0.0
 ,5314.92824,0.0
ru ,7250.461835,0.0
 ,3821.906999,0.0
arthur ,6056.552319,0.0
tu pluma ,8732.297642,-24.0
no ,4281.759765,-4.0
por dios ,4200.873265,-1.9921875
ruth ,5443.049957,-3.65625
y tú ,6360.453254,0.0
ruth ,4748.027331,-3.65625
 ,4108.921233,0.0
 ,3446.776009,0.0
por jerry patrick ,4524.576232,0.0
 ,4994.957041,0.0
la ,4821.004471,-21.65625
 ,5275.674194,0.0
 ,3310.570177,0.0
reja ,3798.037008,-1.7421875
a qué ,4576.911343,-60.0
urgente sr ,8344.228541,-4.0
amor ,3682.785487,0.0
 ,3553.465791,0.0
 ,3562.151157,0.0
ruth ,5019.009142,-3.65625
 ,4553.694877,0.0
los ,5168.954071,0.0
 ,3468.253049,0.0
patrick ,4898.265761,0.0
 ,3397.552228,0.0
ruth ,4095.087934,-3.65625
victor ,5504.197483,0.0
por jenna ,4907.71786,0.0
ruth ,5689.128969,-3.65625
 ,3288.213051,0.0
ver ,4568.387025,-1.75
 ,4185.377002,0.0
 ,3417.936319,0.0
 ,3425.272315,0.0
 ,5339.318563,0.0
mar ,4764.820017,0.0
castro ,4371.231305,0.0
por ,5795.928495,-1.3125
culpar ,4058.291669,-1.5625
urgente ,4501.554661,-1300.1640625
rumor ,5870.154502,-6.015625
 ,3475.596493,0.0
ok ,4488.874237,0.0
por ,5061.970326,0.0
 ,3326.0276,0.0
 ,3472.798107,0.0
ir ,5263.561024,0.0
 ,3524.545813,0.0
ven ,4807.499902,0.0
 ,4331.011859,0.0
por ,4512.019687,-1.3125
 ,3663.044346,0.0
 ,4331.929258,0.0
urge culo ,5453.364086,0.0
 ,3249.93506,0.0
