disculpe ese es mi asiento ,4560.16525,0.631
está seguro ,1896.231007,0.632
sí mientras dices fila seis a ciento doce es ese mismo ,7125.102516,0.811
disculpe había visto más mi entrada mira siento es el dos yale viejos asiento ,12030.946903,0.693
muchas gracias ,1252.952144,0.999
 ,2666.038372,0.0
