buen día,2178.592,
buen día en que puedo ayudarlo,3686.067,
Necesito dos kilos de pan por favor,2866.269,
2 kilos de pan aquí están algo más,3581.031,
nada más cuánto le debo,2768.777,
$30,2558.470,
si tiene,2047.253,
muchas gracias buenas tardes,2439.333,
buenas tardes,2608.118,
