buen día,1645.633535,1.0
buen día en qué puedo ayudarle,1356.16134,0.9957199
necesito 2 kilos de pan por favor,1699.98473,0.99633133
2 kg de pan aquí están algo más,1850.13449,0.9935798
nada más cuánto le debo,1387.121457,0.99229574
30 pesos,1379.357639,0.99357975
aquí tiene,714.349502,0.99357975
muchas gracias buenas tardes,1225.579327,0.98715955
buenas tardes,818.122695,0.98715955
