mi día favorito Cuéntame un cuento y podemos coger el libro que quedamos,4983.037,
,2034.934,
,1927.454,
,2531.039,
,2806.091,
videos divertidos,4157.500,
dónde se habrá metido,3535.297,
puedes ayudarme a buscar el hilo hoy se viene al Cole conmigo,4756.822,
aparezca,3586.031,
el sol la luna y la estrella fugaz,11772.928,
buen intento Julia,2579.200,
la verdad es que no debería llevar al hijo al Cole,5083.080,
No para nada yo le dije la r,4995.515,
lío es nuestro secreto y si alguien lo ve y si se piensa,4339.858,
Daniel no va a pasar nada malo,3832.028,
además no se pueden llevar mascotas al Cole,8172.392,
Le prometí el video que podría venir toca biblioteca y ya sabes lo mucho que le gustan los libros,5290.166,
,1573.222,
,2105.986,
,1581.869,
preparándonos para el colegio nosotros tres,4929.121,
,7331.690,
ahora Quédate ahí dentro hasta que yo te diga que puede salir mal,5365.986,
porque el gas hace fuego,5360.075,
La princesa y el dragón,4060.776,
en el piso,8623.607,
alfombra de lectura,2441.255,
encontrar un dragón,4251.076,
lo que mañana,2687.756,
osadía te dicen que no trajera salió al Cole,3353.567,
ya lo tengo Todo bajo control,3379.276,
dibujos lindos de mirar libros,5429.075,
,2411.163,
,4651.774,
lo que nos hace falta es un plan,3276.602,
tranquila encontraremos al y hoy viviremos felices para siempre iguales a las princesas,7372.641,
libros,2374.405,
no va a ser fácil,3976.201,
si no encontramos saliva antes de que termine la clase,5016.050,
entonces más vale que empecemos vamos a separarnos y a pasar las páginas,4171.196,
No molestes el libro el evangelio,4946.751,
verdad Pedro,3271.769,
tengo mi libro,2993.874,
tenía razón Daniel no debe haber llevado al iva la biblioteca,5095.521,
no es culpa tuya amiga el seguro que mañana lo encontramos,4198.545,
los mejores amigos que se puede tener,3992.447,
igual es mejor que me ponga leer mi libro,3133.138,
no me han visto no me han visto,2915.147,
los lujos de Cortázar estupendamente,5522.491,
