no ahora pero les fue aún cuenta y podemos concluir que ambos ,27598.86473,0.356
 ,4296.99614,0.0
jugado ,10620.346279,0.748
por favor nada ,8588.648379,0.27
fue a un lado ,5978.035806,0.524
señal diga ,8382.503041,0.496
ido ,5212.11332,0.681
para darme a buscar al día códice viene al proyecto ninja ,14235.523382,0.402
 ,15945.537068,0.0
de nuevo y distinto un ,37491.616255,0.31
como el intento julia ,5659.923202,0.91
la verdad es que no debería llevar alivio al cole ,5581.952786,0.629
han mamá yo haya vigilado y ,12399.242371,0.531
nuestra secreto es si alguien lo ve o y si se pierde ,12884.437965,0.687
nadie nada pasa nada una ,16466.855343,0.343
además no se pueden llevar mascotas al cole y ,9837.264093,0.685
al día que podría haber mutado wyatt y ya sabes la mucha qué lengua libras ,18861.22843,0.456
luego la ,3879.087912,0.488
 ,2624.91675,0.0
 ,7373.220734,0.0
claro como pero para nuestra mutua leyes de menos de tres tres ,18331.160231,0.478
ha dado voz con ,7045.748536,0.53
a ya que bueno están mal en ,22757.656411,0.481
me ha gustado porque yo ,7469.717572,0.428
primer álbum y el dragón ,11980.532483,0.271
llega ,5675.109254,0.692
basado en la alfombra de lectura ,5073.775736,0.684
iba a ,19661.076555,0.147
 ,6402.034094,0.0
lo sabía te dije que no trajera salió al col de ,5991.988892,0.648
y da a la tenga para luego ,10032.279393,0.623
algo eso es mía denigrar unidas ,12288.371852,0.541
 ,10442.617105,0.0
no es por aquí por ,15469.410993,0.338
lo que nos hace falta es un plan ,3987.26648,0.948
ima ,24423.099719,0.112
irnos ,8751.448779,0.541
nada no va a ser fácil y ,7986.769112,0.815
vamos allí antes de que termine la fuga ,18944.036907,0.6
entonces más vale que empecemos vamos a separarnos y apreciar las páginas ,11980.980356,0.876
de nada le va a coger yo por ,19866.458257,0.55
está o o sea van media ,13523.545437,0.647
no mira ,6545.45457,0.596
tenía razón daniel no debía haber llevado allí a la biblioteca a bordo del cerrado y todo por mi por estar ,15806.358402,0.698
no es culpa tuya rica es seguro que mañana lo encontramos ,9484.717842,0.757
gracias ,8942.074766,0.964
iguales mejor fonda ayer mil ,6553.953258,0.331
no está ,8650.325577,0.423
mia mia glabras más honesto venga ven mal ,19887.750382,0.518
