{
  "title": "Ejemplos de emociones",
  "version": 1,
  "date": "2014-05-03T22:00:00.000Z",
  "test": true,
  "emotions": {
    "joy": {
      "j1": "Ayer estuve en una fiesta de cumpleaños con mis amigos",
      "j2": "Ahora iré a jugar al parque"
    },
    "anger": {
      "a1": "Me han dado un golpe en el recreo",
      "a2": "Me han castigado sin salir a jugar"
    },
    "sadness": {
      "s1": "Echo de menos a mi mejor amigo",
      "s2": "Se me ha muerto mi pez",
      "s3": "Se me ha roto mi juguete favorito"
    },
    "fear": {
      "f1": "Me he perdido y no se donde estoy",
      "f2": "Acabo de tener una pesadilla"
    }
  }
}
