Transcripcion,Watson Trans.,Google Trans.,CMUS Trans.,WitAI Trans.,Watson WER,Google WER,CMUS WER,WitAI WER,Watson Time,Google Time,CMUS Time,WitAI Time,Watson Conf,Google Conf,CMUS Conf
-: Disculpe ese es mi asiento.,disculpe ese es mi asiento ,disculpe ese es mi asiento,pero patrick ,Disculpe Ese es mi asiento,0,0,5,0,4560.165,2038.714,12576.040,3579.554,0.631,0.98715955,-967.0859375
-: ¿Está seguro?,está seguro ,está seguro,ruth ,Estás seguro,0,0,2,1,1896.231,607.183,5988.277,1974.414,0.632,0.99357975,-3.65625
-: Sí mi entrada dice fila seis asiento doce. Es ese mismo.,sí mientras dices fila seis a ciento doce es ese mismo ,si mientras dice fila 6 asiento 12 SS mismo,una una parte como como pude ,Sí Mientras dice si las 6 a 112 es ese mismo,5,6,11,6,7125.103,2046.532,9465.616,3581.648,0.811,0.9971466,-4.0
-: Disculpe había visto mal mi entrada. Mi asiento es el dos. Ya le dejo su asiento.,disculpe había visto más mi entrada mira siento es el dos yale viejos asiento ,disculpe había visto mal mi entrada mi asiento es el 2 ya le dejó su asiento,ok busca un crucero ,Disculpe había visto mami entrada me siento señor Ya le dejó su asiento,7,1,16,8,12030.947,2721.398,12092.808,4181.565,0.693,0.9943824,-16.0
-: Muchas gracias,muchas gracias ,muchas gracias,la cerca ,Muchas gracias,0,0,2,0,1252.952,710.257,6575.074,1825.514,0.999,0.98715955,-0.5
-: De nada, ,de nada,un hecho ,nada,2,0,2,1,2666.038,559.735,5902.141,2084.892,0.0,0.99357975,0.0
 , , , , ,14,7,38,16,29531.436,8683.819,52599.956,17227.587, , , ,