Tipo,% Corrección,% Sustituciones,% Inserciones,% Supresiones,% WER (palabras erroneas),% SER (frases erroneas)
Watson,0.300,0.328,0.372,0.025,0.725,0.939
Google,0.606,0.119,0.275,0.011,0.406,0.878
Wit.AI,0.511,0.124,0.365,0.011,0.500,0.898
CMU Sphinx,0.011,0.204,0.784,0.002,0.991,1.000
